…
Single categorical variable
========================================================


Single categorical variable
========================================================
transition: none

Mother's race (white, black, or other)


```
# A tibble: 189 x 1
   race 
   <fct>
 1 Black
 2 Other
 3 White
 4 White
 5 White
 6 Other
 7 White
 8 Other
 9 White
10 White
# ... with 179 more rows
```
…
Single quantitative variable
========================================================
transition:none


Single quantitative variable
========================================================
transition:none

Infant birth weight in grams


```
# A tibble: 189 x 1
     bwt
   <int>
 1  2523
 2  2551
 3  2557
 4  2594
 5  2600
 6  2622
 7  2637
 8  2637
 9  2663
10  2665
# ... with 179 more rows
```
…
Two categorical variables
========================================================


Two categorical variables
========================================================
transition: none

Mother's race and the number of previous premature labors.


```
# A tibble: 189 x 2
   race  ptl  
   <fct> <fct>
 1 Black 0    
 2 Other 0    
 3 White 0    
 4 White 0    
 5 White 0    
 6 Other 0    
 7 White 0    
 8 Other 0    
 9 White 0    
10 White 0    
# ... with 179 more rows
```
…
One categorical and one quantitative variable
========================================================


One categorical and one quantitative variable
========================================================
transition: none

Mother's race and infant birth weight in grams


```
# A tibble: 189 x 2
   race    bwt
   <fct> <int>
 1 Black  2523
 2 Other  2551
 3 White  2557
 4 White  2594
 5 White  2600
 6 Other  2622
 7 White  2637
 8 Other  2637
 9 White  2663
10 White  2665
# ... with 179 more rows
```
…
Two quantitative variables
========================================================


Two quantitative variables
========================================================
transition: none

Mother's age and infant birth weight


```
# A tibble: 189 x 2
     age   bwt
   <int> <int>
 1    19  2523
 2    33  2551
 3    20  2557
 4    21  2594
 5    18  2600
 6    21  2622
 7    22  2637
 8    17  2637
 9    29  2663
10    26  2665
# ... with 179 more rows
```
…
